{
  "RN ten Doeschate": "3.43",
  "J Yadav": "4.14",
  "V Kohli": "5.45",
  "R Ashwin": "5.70",
  "S Nadeem": "5.86",
  "MC Henriques": "6.04",
  "Z Khan": "6.04",
  "Parvez Rasool": "6.20",
  "MA Starc": "6.42",
  "Sandeep Sharma": "6.75"
}
